Species distribution modeling with R - Predictors
…
oisst_db_file = file.path(oisst_path, "database.csv.gz")

if (file.exists(oisst_db_file)){
  sst_db = oisster::read_database(oisst_path)
} else {
  sst = oisster::fetch_month(dates = seq(from = as.Date("2000-01-01"),
                                       to = current_month(offset = -1),
                                       by = "month"),
                           bb = bb,
                           path = oisst_path)
  sst_db = oisster::build_database(oisst_path, save_db = TRUE)
}
sst_db

# A tibble: 285 × 5
   date       param per   trt   ltm  
   <date>     <chr> <chr> <chr> <lgl>
 1 2000-01-01 sst   mon   mean  NA   
 2 2000-02-01 sst   mon   mean  NA   
 3 2000-03-01 sst   mon   mean  NA   
 4 2000-04-01 sst   mon   mean  NA   
 5 2000-05-01 sst   mon   mean  NA   
 6 2000-06-01 sst   mon   mean  NA   
 7 2000-07-01 sst   mon   mean  NA   
 8 2000-08-01 sst   mon   mean  NA   
 9 2000-09-01 sst   mon   mean  NA   
10 2000-10-01 sst   mon   mean  NA   
# ℹ 275 more rows
…
